2.545863011550903252e+02
2.734038108825683722e+01
1.832438150405883803e+01
1.632152922630309888e+01
1.514005230903625510e+01
1.397410150527954187e+01
1.297820368766784682e+01
1.226394248962402322e+01
1.163954753875732351e+01
1.091956818580627520e+01
1.070832553863525405e+01
1.009734252929687415e+01
9.894472379684447816e+00
9.490499782562256570e+00
9.373030261993408274e+00
9.119382400512694886e+00
8.861036357879639169e+00
8.791506729125977415e+00
8.636036825180053000e+00
8.616369619369507404e+00
8.448905997276305868e+00
8.358654398918151429e+00
8.312997307777404643e+00
8.384498777389525870e+00
8.164817733764648366e+00
7.944275751113891282e+00
7.734351906776428365e+00
7.712562317848205673e+00
7.731607131958007528e+00
7.669748048782349059e+00
7.687588834762573597e+00
7.561822786331176438e+00
7.575699505805968847e+00
7.504524083137511958e+00
7.444376120567321564e+00
7.297270307540893342e+00
7.254910454750061355e+00
7.280593543052673589e+00
7.176109046936034908e+00
7.093232517242431534e+00
7.085007476806640447e+00
6.983671898841858017e+00
6.995260362625121964e+00
7.029430923461913672e+00
7.044995646476746032e+00
6.952632150650024379e+00
6.920285935401916610e+00
6.905921669006347408e+00
6.891732015609741246e+00
6.834059576988220641e+00
